%YAML 1.1
%TAG !u! tag:unity3d.com,2011:
--- !u!21 &2100000
Material:
  serializedVersion: 6
  m_ObjectHideFlags: 0
  m_PrefabParentObject: {fileID: 0}
  m_PrefabInternal: {fileID: 0}
  m_Name: WaterWaveMobile
  m_Shader: {fileID: 4800000, guid: 435b429f042368244b733565e3acc046, type: 3}
  m_ShaderKeywords: 
  m_LightmapFlags: 5
  m_CustomRenderQueue: -1
  stringTagMap: {}
  m_SavedProperties:
    serializedVersion: 2
    m_TexEnvs:
      data:
        first:
          name: _MainTex
        second:
          m_Texture: {fileID: 0}
          m_Scale: {x: 1, y: 1}
          m_Offset: {x: 0, y: 0}
      data:
        first:
          name: _BumpMap
        second:
          m_Texture: {fileID: 2800000, guid: 568ba7af0400e8d4c85404783ec04705, type: 3}
          m_Scale: {x: 2, y: 2}
          m_Offset: {x: 0, y: 0}
      data:
        first:
          name: _Cube
        second:
          m_Texture: {fileID: 8900000, guid: e20fe7ddd5bd687438b2ea6aac51b0b4, type: 2}
          m_Scale: {x: 1, y: 1}
          m_Offset: {x: 0, y: 0}
      data:
        first:
          name: _HeightMap
        second:
          m_Texture: {fileID: 2800000, guid: d3333d624ee596c48a94ad07ea1f95ee, type: 3}
          m_Scale: {x: 1, y: 1}
          m_Offset: {x: 0, y: 0}
    m_Floats:
      data:
        first:
          name: _Cutoff
        second: .5
      data:
        first:
          name: _Shininess
        second: 10.000001
      data:
        first:
          name: _BumpAmt
        second: 3.57142854
      data:
        first:
          name: _FPOW
        second: 1.5
      data:
        first:
          name: _R0
        second: .400000006
      data:
        first:
          name: _Height
        second: .303571522
      data:
        first:
          name: _OffsetXHeightMap
        second: 0
      data:
        first:
          name: _OffsetYHeightMap
        second: .232142821
      data:
        first:
          name: _OffsetHeightMap
        second: 0
      data:
        first:
          name: _CubeMapOpacity
        second: 0
    m_Colors:
      data:
        first:
          name: _Color
        second: {r: 1, g: 1, b: 1, a: 1}
      data:
        first:
          name: _SpecColor
        second: {r: 1, g: 1, b: 1, a: 1}
      data:
        first:
          name: _ReflectColor
        second: {r: .765138447, g: .875223637, b: .897058845, a: 1}
      data:
        first:
          name: _RimColor
        second: {r: .697231829, g: .708865285, b: .764705896, a: 1}
