%YAML 1.1
%TAG !u! tag:unity3d.com,2011:
--- !u!21 &2100000
Material:
  serializedVersion: 6
  m_ObjectHideFlags: 0
  m_PrefabParentObject: {fileID: 0}
  m_PrefabInternal: {fileID: 0}
  m_Name: ParticlesGlow
  m_Shader: {fileID: 4800000, guid: 7682ab5e936afcb469d7fef4d5adf6eb, type: 3}
  m_ShaderKeywords: 
  m_LightmapFlags: 5
  m_CustomRenderQueue: -1
  stringTagMap: {}
  m_SavedProperties:
    serializedVersion: 2
    m_TexEnvs:
      data:
        first:
          name: _MainTex
        second:
          m_Texture: {fileID: 2800000, guid: e8a9c403be0513c429a727c5b2a4ddf1, type: 3}
          m_Scale: {x: 1, y: 1}
          m_Offset: {x: 0, y: 0}
    m_Floats:
      data:
        first:
          name: _CutOutLightCore
        second: 0
      data:
        first:
          name: _TintStrength
        second: 1.16071427
      data:
        first:
          name: _CoreStrength
        second: 1.78571427
    m_Colors:
      data:
        first:
          name: _Color
        second: {r: 1, g: 1, b: 1, a: 1}
      data:
        first:
          name: _TintColor
        second: {r: .279411793, g: .43346855, b: 1, a: .70588237}
      data:
        first:
          name: _CoreColor
        second: {r: .823529422, g: .868559778, b: 1, a: 1}
