%YAML 1.1
%TAG !u! tag:unity3d.com,2011:
--- !u!21 &2100000
Material:
  serializedVersion: 6
  m_ObjectHideFlags: 0
  m_PrefabParentObject: {fileID: 0}
  m_PrefabInternal: {fileID: 0}
  m_Name: Ice
  m_Shader: {fileID: 200, guid: 0000000000000000f000000000000000, type: 0}
  m_ShaderKeywords: 
  m_LightmapFlags: 5
  m_CustomRenderQueue: -1
  stringTagMap: {}
  m_SavedProperties:
    serializedVersion: 2
    m_TexEnvs:
      data:
        first:
          name: _MainTex
        second:
          m_Texture: {fileID: 2800000, guid: 4659e007eb2ae2042b190b8a261015f3, type: 3}
          m_Scale: {x: .125, y: .25}
          m_Offset: {x: .875, y: .75}
      data:
        first:
          name: _GlowTex
        second:
          m_Texture: {fileID: 2800000, guid: 0755104543d999e418df9da81446f85c, type: 3}
          m_Scale: {x: .25, y: .25}
          m_Offset: {x: 0, y: 0}
    m_Floats:
      data:
        first:
          name: _InvFade
        second: 1
      data:
        first:
          name: _GlowStrength
        second: 3
    m_Colors:
      data:
        first:
          name: _Color
        second: {r: 1, g: 1, b: 1, a: 1}
      data:
        first:
          name: _TintColor
        second: {r: .272058845, g: .668661177, b: 1, a: .501960814}
      data:
        first:
          name: _GlowColor
        second: {r: .79411763, g: .906288028, b: 1, a: 1}
