%YAML 1.1
%TAG !u! tag:unity3d.com,2011:
--- !u!21 &2100000
Material:
  serializedVersion: 6
  m_ObjectHideFlags: 0
  m_PrefabParentObject: {fileID: 0}
  m_PrefabInternal: {fileID: 0}
  m_Name: DistortMobile
  m_Shader: {fileID: 4800000, guid: 1c01bbd691bc54b438e241dddecf5481, type: 3}
  m_ShaderKeywords: 
  m_LightmapFlags: 5
  m_CustomRenderQueue: -1
  stringTagMap: {}
  m_SavedProperties:
    serializedVersion: 2
    m_TexEnvs:
      data:
        first:
          name: _MainTex
        second:
          m_Texture: {fileID: 2800000, guid: f9bb0fc00d645b74a9f69161d166cbc6, type: 3}
          m_Scale: {x: .125, y: .25}
          m_Offset: {x: .875, y: .25}
      data:
        first:
          name: _BumpMap
        second:
          m_Texture: {fileID: 2800000, guid: c8b3e5216f13f1248a0857a10afc8fad, type: 3}
          m_Scale: {x: .125, y: .25}
          m_Offset: {x: .875, y: .25}
      data:
        first:
          name: _HeightMap
        second:
          m_Texture: {fileID: 2800000, guid: 2244bbd66e9e2294ea114f0dd82c1ced, type: 3}
          m_Scale: {x: 1, y: 1}
          m_Offset: {x: 0, y: 0}
      data:
        first:
          name: _CutoutTex
        second:
          m_Texture: {fileID: 2800000, guid: 969fe4c0a05aa7548b2eb4c60af3707c, type: 3}
          m_Scale: {x: 1, y: 1}
          m_Offset: {x: 0, y: 0}
    m_Floats:
      data:
        first:
          name: _Cutoff
        second: 1
      data:
        first:
          name: _Shininess
        second: 3.00000072
      data:
        first:
          name: _InvFade
        second: 1
      data:
        first:
          name: _BumpAmt
        second: 35.7142868
      data:
        first:
          name: _ColorStrength
        second: 1
      data:
        first:
          name: _FPOW
        second: 2.5999999
      data:
        first:
          name: _R0
        second: .0500000007
      data:
        first:
          name: _Height
        second: .160714284
      data:
        first:
          name: _OffsetXHeightMap
        second: 0
      data:
        first:
          name: _OffsetYHeightMap
        second: 0
    m_Colors:
      data:
        first:
          name: _Color
        second: {r: .345588207, g: .617352724, b: 1, a: 1}
      data:
        first:
          name: _SpecColor
        second: {r: 1, g: 1, b: 1, a: 1}
      data:
        first:
          name: _TintColor
        second: {r: .5, g: .5, b: .5, a: .5}
      data:
        first:
          name: _ReflectColor
        second: {r: 0, g: .296551704, b: 1, a: 1}
      data:
        first:
          name: _RimColor
        second: {r: .492647052, g: .76906687, b: 1, a: 1}
