%YAML 1.1
%TAG !u! tag:unity3d.com,2011:
--- !u!21 &2100000
Material:
  serializedVersion: 6
  m_ObjectHideFlags: 0
  m_PrefabParentObject: {fileID: 0}
  m_PrefabInternal: {fileID: 0}
  m_Name: Distort
  m_Shader: {fileID: 4800000, guid: 8a46e1547f6cecb4e944852647f5714b, type: 3}
  m_ShaderKeywords: 
  m_LightmapFlags: 5
  m_CustomRenderQueue: -1
  stringTagMap: {}
  m_SavedProperties:
    serializedVersion: 2
    m_TexEnvs:
      data:
        first:
          name: _MainTex
        second:
          m_Texture: {fileID: 2800000, guid: cae2efa314b2b3644a22ca29880d42c9, type: 3}
          m_Scale: {x: .25, y: .25}
          m_Offset: {x: .25, y: 1}
      data:
        first:
          name: _BumpMap
        second:
          m_Texture: {fileID: 2800000, guid: 7e82099c6d278ce45aed04a5ada461c9, type: 3}
          m_Scale: {x: .25, y: .25}
          m_Offset: {x: .25, y: 1}
      data:
        first:
          name: _HeightMap
        second:
          m_Texture: {fileID: 0}
          m_Scale: {x: 1, y: 1}
          m_Offset: {x: 0, y: 0}
      data:
        first:
          name: _CutoutTex
        second:
          m_Texture: {fileID: 2800000, guid: 969fe4c0a05aa7548b2eb4c60af3707c, type: 3}
          m_Scale: {x: 1, y: 1}
          m_Offset: {x: 0, y: 0}
    m_Floats:
      data:
        first:
          name: _Cutoff
        second: 0
      data:
        first:
          name: _Shininess
        second: 1.92354071
      data:
        first:
          name: _BumpAmt
        second: 23.2142849
      data:
        first:
          name: _ColorStrength
        second: .75
      data:
        first:
          name: _FPOW
        second: 4.13999987
      data:
        first:
          name: _R0
        second: .0500000007
      data:
        first:
          name: _Height
        second: 0
    m_Colors:
      data:
        first:
          name: _Color
        second: {r: .198529422, g: .56886375, b: 1, a: 1}
      data:
        first:
          name: _SpecColor
        second: {r: .5, g: .5, b: .5, a: 1}
      data:
        first:
          name: _TintColor
        second: {r: 1, g: 1, b: 1, a: 1}
      data:
        first:
          name: _ReflectColor
        second: {r: 1, g: 1, b: 1, a: .5}
      data:
        first:
          name: _RimColor
        second: {r: 1, g: 1, b: 1, a: .501960814}
