%YAML 1.1
%TAG !u! tag:unity3d.com,2011:
--- !u!55 &1
PhysicsManager:
  m_ObjectHideFlags: 0
  serializedVersion: 2
  m_Gravity: {x: 0, y: -9.81, z: 0}
  m_DefaultMaterial: {fileID: 0}
  m_BounceThreshold: 2
  m_SleepThreshold: 0.005
  m_DefaultContactOffset: 0.01
  m_SolverIterationCount: 6
  m_QueriesHitTriggers: 1
  m_EnableAdaptiveForce: 0
  m_LayerCollisionMatrix: ff00fffbff00fffbff00fffbffffffffff00fffbff00fffbffffffffffffffffc80000c0c8000023c8000002c8000080c8000040c8000001c8000020c80000e3ff00fffbff00fffbff00fffbff00fffbff00fffbff00fffbff00fffbff00fffbffa2fffbff86fffbc8000004ff00fffbff00ffebffc2fffbff91fffbff89fffb
