%YAML 1.1
%TAG !u! tag:unity3d.com,2011:
--- !u!78 &1
TagManager:
  serializedVersion: 2
  tags:
  - Grid
  - PlanetInfo
  - PlayerInfo
  - UpgradeManager
  - PlayerPic
  - PlayerName
  - StartData
  - SendData
  - RecievedData
  - FinalData
  - JSONData
  - GenerateButton
  - SaveButton
  - LoadButton
  - SocialManager
  - CrystalManager
  - InAppManager
  - CursorSprite
  - MusicManager
  - LevelSelectManager
  - Effect
  - MobileBillingManager
  - IOSNotificationPermission
  - ResetBuysPopup
  - LoadingObj
  - SelectedBox
  - Artifact
  layers:
  - Default
  - TransparentFX
  - Ignore Raycast
  - 
  - Water
  - UI
  - 
  - 
  - HybridTower
  - HybridCreep
  - OnlyArtifact
  - OnlyGround
  - OnlyAir
  - OnlyHero
  - OnlyTower
  - AllUnit
  - 16
  - 17
  - 18
  - 19
  - 20
  - 21
  - 22
  - 23
  - Hero
  - Artifact
  - Terrain
  - Platform
  - ShootObj
  - Tower
  - CreepF
  - Creep
  m_SortingLayers:
  - name: Tooltip
    uniqueID: 4198578737
    locked: 0
  - name: Default
    uniqueID: 0
    locked: 0
