%YAML 1.1
%TAG !u! tag:unity3d.com,2011:
--- !u!114 &11400000
MonoBehaviour:
  m_ObjectHideFlags: 0
  m_CorrespondingSourceObject: {fileID: 0}
  m_PrefabInternal: {fileID: 0}
  m_GameObject: {fileID: 0}
  m_Enabled: 1
  m_EditorHideFlags: 0
  m_Script: {fileID: 0}
  m_Name: ShaderUtility
  m_EditorClassIdentifier: Assembly-CSharp:VoxelBusters.Utility:ShaderUtility
  m_shaderInfoList:
  - m_name: Standard (Specular setup)
    m_propertyList:
    - m_name: _Color
      m_type: 0
    - m_name: _MainTex
      m_type: 4
    - m_name: _Cutoff
      m_type: 3
    - m_name: _Glossiness
      m_type: 3
    - m_name: _GlossMapScale
      m_type: 3
    - m_name: _SmoothnessTextureChannel
      m_type: 2
    - m_name: _SpecColor
      m_type: 0
    - m_name: _SpecGlossMap
      m_type: 4
    - m_name: _SpecularHighlights
      m_type: 2
    - m_name: _GlossyReflections
      m_type: 2
    - m_name: _BumpScale
      m_type: 2
    - m_name: _BumpMap
      m_type: 4
    - m_name: _Parallax
      m_type: 3
    - m_name: _ParallaxMap
      m_type: 4
    - m_name: _OcclusionStrength
      m_type: 3
    - m_name: _OcclusionMap
      m_type: 4
    - m_name: _EmissionColor
      m_type: 0
    - m_name: _EmissionMap
      m_type: 4
    - m_name: _DetailMask
      m_type: 4
    - m_name: _DetailAlbedoMap
      m_type: 4
    - m_name: _DetailNormalMapScale
      m_type: 2
    - m_name: _DetailNormalMap
      m_type: 4
    - m_name: _UVSec
      m_type: 2
    - m_name: _Mode
      m_type: 2
    - m_name: _SrcBlend
      m_type: 2
    - m_name: _DstBlend
      m_type: 2
    - m_name: _ZWrite
      m_type: 2
  - m_name: Standard
    m_propertyList:
    - m_name: _Color
      m_type: 0
    - m_name: _MainTex
      m_type: 4
    - m_name: _Cutoff
      m_type: 3
    - m_name: _Glossiness
      m_type: 3
    - m_name: _GlossMapScale
      m_type: 3
    - m_name: _SmoothnessTextureChannel
      m_type: 2
    - m_name: _Metallic
      m_type: 3
    - m_name: _MetallicGlossMap
      m_type: 4
    - m_name: _SpecularHighlights
      m_type: 2
    - m_name: _GlossyReflections
      m_type: 2
    - m_name: _BumpScale
      m_type: 2
    - m_name: _BumpMap
      m_type: 4
    - m_name: _Parallax
      m_type: 3
    - m_name: _ParallaxMap
      m_type: 4
    - m_name: _OcclusionStrength
      m_type: 3
    - m_name: _OcclusionMap
      m_type: 4
    - m_name: _EmissionColor
      m_type: 0
    - m_name: _EmissionMap
      m_type: 4
    - m_name: _DetailMask
      m_type: 4
    - m_name: _DetailAlbedoMap
      m_type: 4
    - m_name: _DetailNormalMapScale
      m_type: 2
    - m_name: _DetailNormalMap
      m_type: 4
    - m_name: _UVSec
      m_type: 2
    - m_name: _Mode
      m_type: 2
    - m_name: _SrcBlend
      m_type: 2
    - m_name: _DstBlend
      m_type: 2
    - m_name: _ZWrite
      m_type: 2
  - m_name: Hidden/Internal-PrePassLighting
    m_propertyList:
    - m_name: _LightTexture0
      m_type: 4
    - m_name: _LightTextureB0
      m_type: 4
    - m_name: _ShadowMapTexture
      m_type: 4
  - m_name: Hidden/Internal-DeferredShading
    m_propertyList:
    - m_name: _LightTexture0
      m_type: 4
    - m_name: _LightTextureB0
      m_type: 4
    - m_name: _ShadowMapTexture
      m_type: 4
    - m_name: _SrcBlend
      m_type: 2
    - m_name: _DstBlend
      m_type: 2
  - m_name: Legacy Shaders/VertexLit
    m_propertyList:
    - m_name: _Color
      m_type: 0
    - m_name: _SpecColor
      m_type: 0
    - m_name: _Emission
      m_type: 0
    - m_name: _Shininess
      m_type: 3
    - m_name: _MainTex
      m_type: 4
  - m_name: Legacy Shaders/Diffuse Fast
    m_propertyList:
    - m_name: _Color
      m_type: 0
    - m_name: _MainTex
      m_type: 4
  - m_name: Legacy Shaders/Diffuse
    m_propertyList:
    - m_name: _Color
      m_type: 0
    - m_name: _MainTex
      m_type: 4
  - m_name: Legacy Shaders/Bumped Diffuse
    m_propertyList:
    - m_name: _Color
      m_type: 0
    - m_name: _MainTex
      m_type: 4
    - m_name: _BumpMap
      m_type: 4
  - m_name: Legacy Shaders/Specular
    m_propertyList:
    - m_name: _Color
      m_type: 0
    - m_name: _SpecColor
      m_type: 0
    - m_name: _Shininess
      m_type: 3
    - m_name: _MainTex
      m_type: 4
  - m_name: Legacy Shaders/Bumped Specular
    m_propertyList:
    - m_name: _Color
      m_type: 0
    - m_name: _SpecColor
      m_type: 0
    - m_name: _Shininess
      m_type: 3
    - m_name: _MainTex
      m_type: 4
    - m_name: _BumpMap
      m_type: 4
  - m_name: Legacy Shaders/Diffuse Detail
    m_propertyList:
    - m_name: _Color
      m_type: 0
    - m_name: _MainTex
      m_type: 4
    - m_name: _Detail
      m_type: 4
  - m_name: Legacy Shaders/Self-Illumin/VertexLit
    m_propertyList:
    - m_name: _Color
      m_type: 0
    - m_name: _SpecColor
      m_type: 0
    - m_name: _Shininess
      m_type: 3
    - m_name: _MainTex
      m_type: 4
    - m_name: _Illum
      m_type: 4
    - m_name: _Emission
      m_type: 2
  - m_name: Legacy Shaders/Self-Illumin/Diffuse
    m_propertyList:
    - m_name: _Color
      m_type: 0
    - m_name: _MainTex
      m_type: 4
    - m_name: _Illum
      m_type: 4
    - m_name: _Emission
      m_type: 2
  - m_name: Legacy Shaders/Self-Illumin/Bumped Diffuse
    m_propertyList:
    - m_name: _Color
      m_type: 0
    - m_name: _MainTex
      m_type: 4
    - m_name: _Illum
      m_type: 4
    - m_name: _BumpMap
      m_type: 4
    - m_name: _Emission
      m_type: 2
  - m_name: Legacy Shaders/Self-Illumin/Specular
    m_propertyList:
    - m_name: _Color
      m_type: 0
    - m_name: _SpecColor
      m_type: 0
    - m_name: _Shininess
      m_type: 3
    - m_name: _MainTex
      m_type: 4
    - m_name: _Illum
      m_type: 4
    - m_name: _Emission
      m_type: 2
  - m_name: Legacy Shaders/Self-Illumin/Bumped Specular
    m_propertyList:
    - m_name: _Color
      m_type: 0
    - m_name: _SpecColor
      m_type: 0
    - m_name: _Shininess
      m_type: 3
    - m_name: _MainTex
      m_type: 4
    - m_name: _Illum
      m_type: 4
    - m_name: _BumpMap
      m_type: 4
    - m_name: _Emission
      m_type: 2
  - m_name: Legacy Shaders/Reflective/VertexLit
    m_propertyList:
    - m_name: _Color
      m_type: 0
    - m_name: _ReflectColor
      m_type: 0
    - m_name: _MainTex
      m_type: 4
    - m_name: _Cube
      m_type: 4
  - m_name: Legacy Shaders/Reflective/Bumped Unlit
    m_propertyList:
    - m_name: _Color
      m_type: 0
    - m_name: _ReflectColor
      m_type: 0
    - m_name: _MainTex
      m_type: 4
    - m_name: _Cube
      m_type: 4
    - m_name: _BumpMap
      m_type: 4
  - m_name: Legacy Shaders/Reflective/Diffuse
    m_propertyList:
    - m_name: _Color
      m_type: 0
    - m_name: _ReflectColor
      m_type: 0
    - m_name: _MainTex
      m_type: 4
    - m_name: _Cube
      m_type: 4
  - m_name: Legacy Shaders/Reflective/Bumped Diffuse
    m_propertyList:
    - m_name: _Color
      m_type: 0
    - m_name: _ReflectColor
      m_type: 0
    - m_name: _MainTex
      m_type: 4
    - m_name: _Cube
      m_type: 4
    - m_name: _BumpMap
      m_type: 4
  - m_name: Legacy Shaders/Reflective/Bumped VertexLit
    m_propertyList:
    - m_name: _Color
      m_type: 0
    - m_name: _SpecColor
      m_type: 0
    - m_name: _Shininess
      m_type: 3
    - m_name: _ReflectColor
      m_type: 0
    - m_name: _MainTex
      m_type: 4
    - m_name: _Cube
      m_type: 4
    - m_name: _BumpMap
      m_type: 4
  - m_name: Legacy Shaders/Reflective/Specular
    m_propertyList:
    - m_name: _Color
      m_type: 0
    - m_name: _SpecColor
      m_type: 0
    - m_name: _Shininess
      m_type: 3
    - m_name: _ReflectColor
      m_type: 0
    - m_name: _MainTex
      m_type: 4
    - m_name: _Cube
      m_type: 4
  - m_name: Legacy Shaders/Reflective/Bumped Specular
    m_propertyList:
    - m_name: _Color
      m_type: 0
    - m_name: _SpecColor
      m_type: 0
    - m_name: _Shininess
      m_type: 3
    - m_name: _ReflectColor
      m_type: 0
    - m_name: _MainTex
      m_type: 4
    - m_name: _Cube
      m_type: 4
    - m_name: _BumpMap
      m_type: 4
  - m_name: Legacy Shaders/Transparent/VertexLit
    m_propertyList:
    - m_name: _Color
      m_type: 0
    - m_name: _SpecColor
      m_type: 0
    - m_name: _Emission
      m_type: 0
    - m_name: _Shininess
      m_type: 3
    - m_name: _MainTex
      m_type: 4
  - m_name: Legacy Shaders/Transparent/Diffuse
    m_propertyList:
    - m_name: _Color
      m_type: 0
    - m_name: _MainTex
      m_type: 4
  - m_name: Legacy Shaders/Transparent/Bumped Diffuse
    m_propertyList:
    - m_name: _Color
      m_type: 0
    - m_name: _MainTex
      m_type: 4
    - m_name: _BumpMap
      m_type: 4
  - m_name: Legacy Shaders/Transparent/Specular
    m_propertyList:
    - m_name: _Color
      m_type: 0
    - m_name: _SpecColor
      m_type: 0
    - m_name: _Shininess
      m_type: 3
    - m_name: _MainTex
      m_type: 4
  - m_name: Legacy Shaders/Transparent/Bumped Specular
    m_propertyList:
    - m_name: _Color
      m_type: 0
    - m_name: _SpecColor
      m_type: 0
    - m_name: _Shininess
      m_type: 3
    - m_name: _MainTex
      m_type: 4
    - m_name: _BumpMap
      m_type: 4
  - m_name: Legacy Shaders/Transparent/Cutout/VertexLit
    m_propertyList:
    - m_name: _Color
      m_type: 0
    - m_name: _SpecColor
      m_type: 0
    - m_name: _Emission
      m_type: 0
    - m_name: _Shininess
      m_type: 3
    - m_name: _MainTex
      m_type: 4
    - m_name: _Cutoff
      m_type: 3
  - m_name: Legacy Shaders/Transparent/Cutout/Diffuse
    m_propertyList:
    - m_name: _Color
      m_type: 0
    - m_name: _MainTex
      m_type: 4
    - m_name: _Cutoff
      m_type: 3
  - m_name: Legacy Shaders/Transparent/Cutout/Bumped Diffuse
    m_propertyList:
    - m_name: _Color
      m_type: 0
    - m_name: _MainTex
      m_type: 4
    - m_name: _BumpMap
      m_type: 4
    - m_name: _Cutoff
      m_type: 3
  - m_name: Legacy Shaders/Transparent/Cutout/Specular
    m_propertyList:
    - m_name: _Color
      m_type: 0
    - m_name: _SpecColor
      m_type: 0
    - m_name: _Shininess
      m_type: 3
    - m_name: _MainTex
      m_type: 4
    - m_name: _Cutoff
      m_type: 3
  - m_name: Legacy Shaders/Transparent/Cutout/Bumped Specular
    m_propertyList:
    - m_name: _Color
      m_type: 0
    - m_name: _SpecColor
      m_type: 0
    - m_name: _Shininess
      m_type: 3
    - m_name: _MainTex
      m_type: 4
    - m_name: _BumpMap
      m_type: 4
    - m_name: _Cutoff
      m_type: 3
  - m_name: Legacy Shaders/Parallax Diffuse
    m_propertyList:
    - m_name: _Color
      m_type: 0
    - m_name: _Parallax
      m_type: 3
    - m_name: _MainTex
      m_type: 4
    - m_name: _BumpMap
      m_type: 4
    - m_name: _ParallaxMap
      m_type: 4
  - m_name: Legacy Shaders/Parallax Specular
    m_propertyList:
    - m_name: _Color
      m_type: 0
    - m_name: _SpecColor
      m_type: 0
    - m_name: _Shininess
      m_type: 3
    - m_name: _Parallax
      m_type: 3
    - m_name: _MainTex
      m_type: 4
    - m_name: _BumpMap
      m_type: 4
    - m_name: _ParallaxMap
      m_type: 4
  - m_name: Legacy Shaders/Self-Illumin/Parallax Diffuse
    m_propertyList:
    - m_name: _Color
      m_type: 0
    - m_name: _Parallax
      m_type: 3
    - m_name: _MainTex
      m_type: 4
    - m_name: _Illum
      m_type: 4
    - m_name: _BumpMap
      m_type: 4
    - m_name: _ParallaxMap
      m_type: 4
    - m_name: _Emission
      m_type: 2
  - m_name: Legacy Shaders/Self-Illumin/Parallax Specular
    m_propertyList:
    - m_name: _Color
      m_type: 0
    - m_name: _SpecColor
      m_type: 0
    - m_name: _Shininess
      m_type: 3
    - m_name: _Parallax
      m_type: 3
    - m_name: _MainTex
      m_type: 4
    - m_name: _Illum
      m_type: 4
    - m_name: _BumpMap
      m_type: 4
    - m_name: _ParallaxMap
      m_type: 4
    - m_name: _Emission
      m_type: 2
  - m_name: Legacy Shaders/Reflective/Parallax Diffuse
    m_propertyList:
    - m_name: _Color
      m_type: 0
    - m_name: _ReflectColor
      m_type: 0
    - m_name: _Parallax
      m_type: 3
    - m_name: _MainTex
      m_type: 4
    - m_name: _Cube
      m_type: 4
    - m_name: _BumpMap
      m_type: 4
    - m_name: _ParallaxMap
      m_type: 4
  - m_name: Legacy Shaders/Reflective/Parallax Specular
    m_propertyList:
    - m_name: _Color
      m_type: 0
    - m_name: _SpecColor
      m_type: 0
    - m_name: _Shininess
      m_type: 3
    - m_name: _ReflectColor
      m_type: 0
    - m_name: _Parallax
      m_type: 3
    - m_name: _MainTex
      m_type: 4
    - m_name: _Cube
      m_type: 4
    - m_name: _BumpMap
      m_type: 4
    - m_name: _ParallaxMap
      m_type: 4
  - m_name: Legacy Shaders/Transparent/Parallax Diffuse
    m_propertyList:
    - m_name: _Color
      m_type: 0
    - m_name: _Parallax
      m_type: 3
    - m_name: _MainTex
      m_type: 4
    - m_name: _BumpMap
      m_type: 4
    - m_name: _ParallaxMap
      m_type: 4
  - m_name: Legacy Shaders/Transparent/Parallax Specular
    m_propertyList:
    - m_name: _Color
      m_type: 0
    - m_name: _SpecColor
      m_type: 0
    - m_name: _Shininess
      m_type: 3
    - m_name: _Parallax
      m_type: 3
    - m_name: _MainTex
      m_type: 4
    - m_name: _BumpMap
      m_type: 4
    - m_name: _ParallaxMap
      m_type: 4
  - m_name: Legacy Shaders/Transparent/Cutout/Soft Edge Unlit
    m_propertyList:
    - m_name: _Color
      m_type: 0
    - m_name: _MainTex
      m_type: 4
    - m_name: _Cutoff
      m_type: 3
  - m_name: Legacy Shaders/Decal
    m_propertyList:
    - m_name: _Color
      m_type: 0
    - m_name: _MainTex
      m_type: 4
    - m_name: _DecalTex
      m_type: 4
  - m_name: FX/Flare
    m_propertyList:
    - m_name: _MainTex
      m_type: 4
  - m_name: Skybox/Cubemap
    m_propertyList:
    - m_name: _Tint
      m_type: 0
    - m_name: _Exposure
      m_type: 3
    - m_name: _Rotation
      m_type: 3
    - m_name: _Tex
      m_type: 4
  - m_name: Skybox/6 Sided
    m_propertyList:
    - m_name: _Tint
      m_type: 0
    - m_name: _Exposure
      m_type: 3
    - m_name: _Rotation
      m_type: 3
    - m_name: _FrontTex
      m_type: 4
    - m_name: _BackTex
      m_type: 4
    - m_name: _LeftTex
      m_type: 4
    - m_name: _RightTex
      m_type: 4
    - m_name: _UpTex
      m_type: 4
    - m_name: _DownTex
      m_type: 4
  - m_name: Skybox/Procedural
    m_propertyList:
    - m_name: _SunDisk
      m_type: 2
    - m_name: _SunSize
      m_type: 3
    - m_name: _SunSizeConvergence
      m_type: 3
    - m_name: _AtmosphereThickness
      m_type: 3
    - m_name: _SkyTint
      m_type: 0
    - m_name: _GroundColor
      m_type: 0
    - m_name: _Exposure
      m_type: 3
  - m_name: Particles/Additive
    m_propertyList:
    - m_name: _TintColor
      m_type: 0
    - m_name: _MainTex
      m_type: 4
    - m_name: _InvFade
      m_type: 3
  - m_name: Particles/~Additive-Multiply
    m_propertyList:
    - m_name: _TintColor
      m_type: 0
    - m_name: _MainTex
      m_type: 4
    - m_name: _InvFade
      m_type: 3
  - m_name: Particles/Additive (Soft)
    m_propertyList:
    - m_name: _MainTex
      m_type: 4
    - m_name: _InvFade
      m_type: 3
  - m_name: Particles/Alpha Blended
    m_propertyList:
    - m_name: _TintColor
      m_type: 0
    - m_name: _MainTex
      m_type: 4
    - m_name: _InvFade
      m_type: 3
  - m_name: Particles/Multiply
    m_propertyList:
    - m_name: _MainTex
      m_type: 4
    - m_name: _InvFade
      m_type: 3
  - m_name: Particles/Multiply (Double)
    m_propertyList:
    - m_name: _MainTex
      m_type: 4
    - m_name: _InvFade
      m_type: 3
  - m_name: Particles/Alpha Blended Premultiply
    m_propertyList:
    - m_name: _MainTex
      m_type: 4
    - m_name: _InvFade
      m_type: 3
  - m_name: Particles/VertexLit Blended
    m_propertyList:
    - m_name: _EmisColor
      m_type: 0
    - m_name: _MainTex
      m_type: 4
  - m_name: Sprites/Diffuse
    m_propertyList:
    - m_name: _MainTex
      m_type: 4
    - m_name: _Color
      m_type: 0
    - m_name: PixelSnap
      m_type: 2
    - m_name: _RendererColor
      m_type: 0
    - m_name: _Flip
      m_type: 1
    - m_name: _AlphaTex
      m_type: 4
    - m_name: _EnableExternalAlpha
      m_type: 2
  - m_name: Hidden/TerrainEngine/Details/Vertexlit
    m_propertyList:
    - m_name: _MainTex
      m_type: 4
  - m_name: Hidden/TerrainEngine/Details/WavingDoublePass
    m_propertyList:
    - m_name: _WavingTint
      m_type: 0
    - m_name: _MainTex
      m_type: 4
    - m_name: _WaveAndDistance
      m_type: 1
    - m_name: _Cutoff
      m_type: 2
  - m_name: Hidden/TerrainEngine/Details/BillboardWavingDoublePass
    m_propertyList:
    - m_name: _WavingTint
      m_type: 0
    - m_name: _MainTex
      m_type: 4
    - m_name: _WaveAndDistance
      m_type: 1
    - m_name: _Cutoff
      m_type: 2
  - m_name: Nature/Terrain/Diffuse
    m_propertyList:
    - m_name: _Control
      m_type: 4
    - m_name: _Splat3
      m_type: 4
    - m_name: _Splat2
      m_type: 4
    - m_name: _Splat1
      m_type: 4
    - m_name: _Splat0
      m_type: 4
    - m_name: _Normal3
      m_type: 4
    - m_name: _Normal2
      m_type: 4
    - m_name: _Normal1
      m_type: 4
    - m_name: _Normal0
      m_type: 4
    - m_name: _MainTex
      m_type: 4
    - m_name: _Color
      m_type: 0
  - m_name: Hidden/TerrainEngine/Splatmap/Diffuse-AddPass
    m_propertyList:
    - m_name: _Control
      m_type: 4
    - m_name: _Splat3
      m_type: 4
    - m_name: _Splat2
      m_type: 4
    - m_name: _Splat1
      m_type: 4
    - m_name: _Splat0
      m_type: 4
    - m_name: _Normal3
      m_type: 4
    - m_name: _Normal2
      m_type: 4
    - m_name: _Normal1
      m_type: 4
    - m_name: _Normal0
      m_type: 4
  - m_name: Hidden/TerrainEngine/BillboardTree
    m_propertyList:
    - m_name: _MainTex
      m_type: 4
  - m_name: Legacy Shaders/Lightmapped/VertexLit
    m_propertyList:
    - m_name: _Color
      m_type: 0
    - m_name: _SpecColor
      m_type: 0
    - m_name: _Shininess
      m_type: 3
    - m_name: _MainTex
      m_type: 4
    - m_name: _LightMap
      m_type: 4
  - m_name: Legacy Shaders/Lightmapped/Diffuse
    m_propertyList:
    - m_name: _Color
      m_type: 0
    - m_name: _MainTex
      m_type: 4
    - m_name: _LightMap
      m_type: 4
  - m_name: Legacy Shaders/Lightmapped/Bumped Diffuse
    m_propertyList:
    - m_name: _Color
      m_type: 0
    - m_name: _MainTex
      m_type: 4
    - m_name: _BumpMap
      m_type: 4
    - m_name: _LightMap
      m_type: 4
  - m_name: Legacy Shaders/Lightmapped/Specular
    m_propertyList:
    - m_name: _Color
      m_type: 0
    - m_name: _SpecColor
      m_type: 0
    - m_name: _Shininess
      m_type: 3
    - m_name: _MainTex
      m_type: 4
    - m_name: _LightMap
      m_type: 4
  - m_name: Legacy Shaders/Lightmapped/Bumped Specular
    m_propertyList:
    - m_name: _Color
      m_type: 0
    - m_name: _SpecColor
      m_type: 0
    - m_name: _Shininess
      m_type: 3
    - m_name: _MainTex
      m_type: 4
    - m_name: _BumpMap
      m_type: 4
    - m_name: _LightMap
      m_type: 4
  - m_name: Hidden/Nature/Tree Soft Occlusion Bark Rendertex
    m_propertyList:
    - m_name: _Color
      m_type: 0
    - m_name: _MainTex
      m_type: 4
    - m_name: _BaseLight
      m_type: 3
    - m_name: _AO
      m_type: 3
    - m_name: _TreeInstanceColor
      m_type: 1
    - m_name: _TreeInstanceScale
      m_type: 1
    - m_name: _SquashAmount
      m_type: 2
  - m_name: Nature/Tree Soft Occlusion Bark
    m_propertyList:
    - m_name: _Color
      m_type: 0
    - m_name: _MainTex
      m_type: 4
    - m_name: _BaseLight
      m_type: 3
    - m_name: _AO
      m_type: 3
    - m_name: _TreeInstanceColor
      m_type: 1
    - m_name: _TreeInstanceScale
      m_type: 1
    - m_name: _SquashAmount
      m_type: 2
  - m_name: Hidden/Nature/Tree Soft Occlusion Leaves Rendertex
    m_propertyList:
    - m_name: _Color
      m_type: 0
    - m_name: _MainTex
      m_type: 4
    - m_name: _Cutoff
      m_type: 3
    - m_name: _HalfOverCutoff
      m_type: 3
    - m_name: _BaseLight
      m_type: 3
    - m_name: _AO
      m_type: 3
    - m_name: _Occlusion
      m_type: 3
    - m_name: _TreeInstanceColor
      m_type: 1
    - m_name: _TreeInstanceScale
      m_type: 1
    - m_name: _SquashAmount
      m_type: 2
  - m_name: Nature/Tree Soft Occlusion Leaves
    m_propertyList:
    - m_name: _Color
      m_type: 0
    - m_name: _MainTex
      m_type: 4
    - m_name: _Cutoff
      m_type: 3
    - m_name: _BaseLight
      m_type: 3
    - m_name: _AO
      m_type: 3
    - m_name: _Occlusion
      m_type: 3
    - m_name: _TreeInstanceColor
      m_type: 1
    - m_name: _TreeInstanceScale
      m_type: 1
    - m_name: _SquashAmount
      m_type: 2
  - m_name: Nature/Tree Creator Bark
    m_propertyList:
    - m_name: _Color
      m_type: 0
    - m_name: _Shininess
      m_type: 3
    - m_name: _MainTex
      m_type: 4
    - m_name: _BumpMap
      m_type: 4
    - m_name: _GlossMap
      m_type: 4
    - m_name: _SpecColor
      m_type: 0
    - m_name: _TreeInstanceColor
      m_type: 1
    - m_name: _TreeInstanceScale
      m_type: 1
    - m_name: _SquashAmount
      m_type: 2
  - m_name: Nature/Tree Creator Leaves
    m_propertyList:
    - m_name: _Color
      m_type: 0
    - m_name: _Shininess
      m_type: 3
    - m_name: _MainTex
      m_type: 4
    - m_name: _BumpMap
      m_type: 4
    - m_name: _GlossMap
      m_type: 4
    - m_name: _TranslucencyMap
      m_type: 4
    - m_name: _ShadowOffset
      m_type: 4
    - m_name: _Cutoff
      m_type: 3
    - m_name: _TreeInstanceColor
      m_type: 1
    - m_name: _TreeInstanceScale
      m_type: 1
    - m_name: _SquashAmount
      m_type: 2
  - m_name: Hidden/Nature/Tree Creator Bark Rendertex
    m_propertyList:
    - m_name: _MainTex
      m_type: 4
    - m_name: _BumpSpecMap
      m_type: 4
    - m_name: _TranslucencyMap
      m_type: 4
    - m_name: _SpecColor
      m_type: 0
  - m_name: Hidden/Nature/Tree Creator Leaves Rendertex
    m_propertyList:
    - m_name: _TranslucencyColor
      m_type: 0
    - m_name: _Cutoff
      m_type: 3
    - m_name: _HalfOverCutoff
      m_type: 3
    - m_name: _TranslucencyViewDependency
      m_type: 3
    - m_name: _MainTex
      m_type: 4
    - m_name: _BumpSpecMap
      m_type: 4
    - m_name: _TranslucencyMap
      m_type: 4
  - m_name: Hidden/Nature/Tree Creator Bark Optimized
    m_propertyList:
    - m_name: _Color
      m_type: 0
    - m_name: _MainTex
      m_type: 4
    - m_name: _BumpSpecMap
      m_type: 4
    - m_name: _TranslucencyMap
      m_type: 4
    - m_name: _Cutoff
      m_type: 3
    - m_name: _SpecColor
      m_type: 0
    - m_name: _TreeInstanceColor
      m_type: 1
    - m_name: _TreeInstanceScale
      m_type: 1
    - m_name: _SquashAmount
      m_type: 2
  - m_name: Hidden/Nature/Tree Creator Leaves Optimized
    m_propertyList:
    - m_name: _Color
      m_type: 0
    - m_name: _TranslucencyColor
      m_type: 0
    - m_name: _Cutoff
      m_type: 3
    - m_name: _TranslucencyViewDependency
      m_type: 3
    - m_name: _ShadowStrength
      m_type: 3
    - m_name: _ShadowOffsetScale
      m_type: 2
    - m_name: _MainTex
      m_type: 4
    - m_name: _ShadowTex
      m_type: 4
    - m_name: _BumpSpecMap
      m_type: 4
    - m_name: _TranslucencyMap
      m_type: 4
    - m_name: _TreeInstanceColor
      m_type: 1
    - m_name: _TreeInstanceScale
      m_type: 1
    - m_name: _SquashAmount
      m_type: 2
  - m_name: Nature/Tree Creator Leaves Fast
    m_propertyList:
    - m_name: _Color
      m_type: 0
    - m_name: _TranslucencyColor
      m_type: 0
    - m_name: _Cutoff
      m_type: 3
    - m_name: _TranslucencyViewDependency
      m_type: 3
    - m_name: _ShadowStrength
      m_type: 3
    - m_name: _MainTex
      m_type: 4
    - m_name: _TreeInstanceColor
      m_type: 1
    - m_name: _TreeInstanceScale
      m_type: 1
    - m_name: _SquashAmount
      m_type: 2
  - m_name: Hidden/Nature/Tree Creator Leaves Fast Optimized
    m_propertyList:
    - m_name: _Color
      m_type: 0
    - m_name: _TranslucencyColor
      m_type: 0
    - m_name: _Cutoff
      m_type: 3
    - m_name: _TranslucencyViewDependency
      m_type: 3
    - m_name: _ShadowStrength
      m_type: 3
    - m_name: _MainTex
      m_type: 4
    - m_name: _ShadowTex
      m_type: 4
    - m_name: _TreeInstanceColor
      m_type: 1
    - m_name: _TreeInstanceScale
      m_type: 1
    - m_name: _SquashAmount
      m_type: 2
  - m_name: Nature/Terrain/Specular
    m_propertyList:
    - m_name: _SpecColor
      m_type: 0
    - m_name: _Shininess
      m_type: 3
    - m_name: _Control
      m_type: 4
    - m_name: _Splat3
      m_type: 4
    - m_name: _Splat2
      m_type: 4
    - m_name: _Splat1
      m_type: 4
    - m_name: _Splat0
      m_type: 4
    - m_name: _Normal3
      m_type: 4
    - m_name: _Normal2
      m_type: 4
    - m_name: _Normal1
      m_type: 4
    - m_name: _Normal0
      m_type: 4
    - m_name: _MainTex
      m_type: 4
    - m_name: _Color
      m_type: 0
  - m_name: Hidden/TerrainEngine/Splatmap/Specular-AddPass
    m_propertyList:
    - m_name: _SpecColor
      m_type: 0
    - m_name: _Shininess
      m_type: 3
    - m_name: _Control
      m_type: 4
    - m_name: _Splat3
      m_type: 4
    - m_name: _Splat2
      m_type: 4
    - m_name: _Splat1
      m_type: 4
    - m_name: _Splat0
      m_type: 4
    - m_name: _Normal3
      m_type: 4
    - m_name: _Normal2
      m_type: 4
    - m_name: _Normal1
      m_type: 4
    - m_name: _Normal0
      m_type: 4
  - m_name: Hidden/TerrainEngine/Splatmap/Specular-Base
    m_propertyList:
    - m_name: _SpecColor
      m_type: 0
    - m_name: _Shininess
      m_type: 3
    - m_name: _MainTex
      m_type: 4
    - m_name: _Color
      m_type: 0
  - m_name: Nature/Terrain/Standard
    m_propertyList:
    - m_name: _Control
      m_type: 4
    - m_name: _Splat3
      m_type: 4
    - m_name: _Splat2
      m_type: 4
    - m_name: _Splat1
      m_type: 4
    - m_name: _Splat0
      m_type: 4
    - m_name: _Normal3
      m_type: 4
    - m_name: _Normal2
      m_type: 4
    - m_name: _Normal1
      m_type: 4
    - m_name: _Normal0
      m_type: 4
    - m_name: _Metallic0
      m_type: 3
    - m_name: _Metallic1
      m_type: 3
    - m_name: _Metallic2
      m_type: 3
    - m_name: _Metallic3
      m_type: 3
    - m_name: _Smoothness0
      m_type: 3
    - m_name: _Smoothness1
      m_type: 3
    - m_name: _Smoothness2
      m_type: 3
    - m_name: _Smoothness3
      m_type: 3
    - m_name: _MainTex
      m_type: 4
    - m_name: _Color
      m_type: 0
  - m_name: Hidden/TerrainEngine/Splatmap/Standard-AddPass
    m_propertyList:
    - m_name: _Control
      m_type: 4
    - m_name: _Splat3
      m_type: 4
    - m_name: _Splat2
      m_type: 4
    - m_name: _Splat1
      m_type: 4
    - m_name: _Splat0
      m_type: 4
    - m_name: _Normal3
      m_type: 4
    - m_name: _Normal2
      m_type: 4
    - m_name: _Normal1
      m_type: 4
    - m_name: _Normal0
      m_type: 4
    - m_name: _Metallic0
      m_type: 3
    - m_name: _Metallic1
      m_type: 3
    - m_name: _Metallic2
      m_type: 3
    - m_name: _Metallic3
      m_type: 3
    - m_name: _Smoothness0
      m_type: 3
    - m_name: _Smoothness1
      m_type: 3
    - m_name: _Smoothness2
      m_type: 3
    - m_name: _Smoothness3
      m_type: 3
  - m_name: Hidden/TerrainEngine/Splatmap/Standard-Base
    m_propertyList:
    - m_name: _MainTex
      m_type: 4
    - m_name: _MetallicTex
      m_type: 4
    - m_name: _Color
      m_type: 0
  - m_name: Mobile/Skybox
    m_propertyList:
    - m_name: _FrontTex
      m_type: 4
    - m_name: _BackTex
      m_type: 4
    - m_name: _LeftTex
      m_type: 4
    - m_name: _RightTex
      m_type: 4
    - m_name: _UpTex
      m_type: 4
    - m_name: _DownTex
      m_type: 4
  - m_name: Mobile/VertexLit
    m_propertyList:
    - m_name: _MainTex
      m_type: 4
  - m_name: Mobile/Diffuse
    m_propertyList:
    - m_name: _MainTex
      m_type: 4
  - m_name: Mobile/Bumped Diffuse
    m_propertyList:
    - m_name: _MainTex
      m_type: 4
    - m_name: _BumpMap
      m_type: 4
  - m_name: Mobile/Bumped Specular
    m_propertyList:
    - m_name: _Shininess
      m_type: 3
    - m_name: _MainTex
      m_type: 4
    - m_name: _BumpMap
      m_type: 4
  - m_name: Mobile/Bumped Specular (1 Directional Light)
    m_propertyList:
    - m_name: _Shininess
      m_type: 3
    - m_name: _MainTex
      m_type: 4
    - m_name: _BumpMap
      m_type: 4
  - m_name: Mobile/VertexLit (Only Directional Lights)
    m_propertyList:
    - m_name: _MainTex
      m_type: 4
  - m_name: Mobile/Unlit (Supports Lightmap)
    m_propertyList:
    - m_name: _MainTex
      m_type: 4
  - m_name: Mobile/Particles/Additive
    m_propertyList:
    - m_name: _MainTex
      m_type: 4
  - m_name: Mobile/Particles/Alpha Blended
    m_propertyList:
    - m_name: _MainTex
      m_type: 4
  - m_name: Mobile/Particles/VertexLit Blended
    m_propertyList:
    - m_name: _EmisColor
      m_type: 0
    - m_name: _MainTex
      m_type: 4
  - m_name: Mobile/Particles/Multiply
    m_propertyList:
    - m_name: _MainTex
      m_type: 4
  - m_name: Unlit/Transparent
    m_propertyList:
    - m_name: _MainTex
      m_type: 4
  - m_name: Unlit/Transparent Cutout
    m_propertyList:
    - m_name: _MainTex
      m_type: 4
    - m_name: _Cutoff
      m_type: 3
  - m_name: Unlit/Texture
    m_propertyList:
    - m_name: _MainTex
      m_type: 4
  - m_name: Unlit/Color
    m_propertyList:
    - m_name: _Color
      m_type: 0
  - m_name: UI/Unlit/Transparent
    m_propertyList:
    - m_name: _MainTex
      m_type: 4
    - m_name: _Color
      m_type: 0
    - m_name: _StencilComp
      m_type: 2
    - m_name: _Stencil
      m_type: 2
    - m_name: _StencilOp
      m_type: 2
    - m_name: _StencilWriteMask
      m_type: 2
    - m_name: _StencilReadMask
      m_type: 2
    - m_name: _ColorMask
      m_type: 2
    - m_name: _UseUIAlphaClip
      m_type: 2
  - m_name: UI/Unlit/Detail
    m_propertyList:
    - m_name: _MainTex
      m_type: 4
    - m_name: _Color
      m_type: 0
    - m_name: _DetailTex
      m_type: 4
    - m_name: _Strength
      m_type: 3
    - m_name: _StencilComp
      m_type: 2
    - m_name: _Stencil
      m_type: 2
    - m_name: _StencilOp
      m_type: 2
    - m_name: _StencilWriteMask
      m_type: 2
    - m_name: _StencilReadMask
      m_type: 2
    - m_name: _ColorMask
      m_type: 2
    - m_name: _UseUIAlphaClip
      m_type: 2
  - m_name: UI/Unlit/Text
    m_propertyList:
    - m_name: _MainTex
      m_type: 4
    - m_name: _Color
      m_type: 0
    - m_name: _StencilComp
      m_type: 2
    - m_name: _Stencil
      m_type: 2
    - m_name: _StencilOp
      m_type: 2
    - m_name: _StencilWriteMask
      m_type: 2
    - m_name: _StencilReadMask
      m_type: 2
    - m_name: _ColorMask
      m_type: 2
    - m_name: _UseUIAlphaClip
      m_type: 2
  - m_name: UI/Unlit/Text Detail
    m_propertyList:
    - m_name: _MainTex
      m_type: 4
    - m_name: _Color
      m_type: 0
    - m_name: _DetailTex
      m_type: 4
    - m_name: _Strength
      m_type: 3
    - m_name: _StencilComp
      m_type: 2
    - m_name: _Stencil
      m_type: 2
    - m_name: _StencilOp
      m_type: 2
    - m_name: _StencilWriteMask
      m_type: 2
    - m_name: _StencilReadMask
      m_type: 2
    - m_name: _ColorMask
      m_type: 2
    - m_name: _UseUIAlphaClip
      m_type: 2
  - m_name: UI/Lit/Transparent
    m_propertyList:
    - m_name: _MainTex
      m_type: 4
    - m_name: _Color
      m_type: 0
    - m_name: _Specular
      m_type: 0
    - m_name: _StencilComp
      m_type: 2
    - m_name: _Stencil
      m_type: 2
    - m_name: _StencilOp
      m_type: 2
    - m_name: _StencilWriteMask
      m_type: 2
    - m_name: _StencilReadMask
      m_type: 2
    - m_name: _ColorMask
      m_type: 2
    - m_name: _UseUIAlphaClip
      m_type: 2
  - m_name: UI/Lit/Bumped
    m_propertyList:
    - m_name: _Color
      m_type: 0
    - m_name: _Specular
      m_type: 0
    - m_name: _MainTex
      m_type: 4
    - m_name: _MainBump
      m_type: 4
    - m_name: _Shininess
      m_type: 3
    - m_name: _StencilComp
      m_type: 2
    - m_name: _Stencil
      m_type: 2
    - m_name: _StencilOp
      m_type: 2
    - m_name: _StencilWriteMask
      m_type: 2
    - m_name: _StencilReadMask
      m_type: 2
    - m_name: _ColorMask
      m_type: 2
    - m_name: _UseUIAlphaClip
      m_type: 2
  - m_name: UI/Lit/Detail
    m_propertyList:
    - m_name: _Color
      m_type: 0
    - m_name: _Specular
      m_type: 0
    - m_name: _MainTex
      m_type: 4
    - m_name: _MainBump
      m_type: 4
    - m_name: _DetailTex
      m_type: 4
    - m_name: _DetailBump
      m_type: 4
    - m_name: _Strength
      m_type: 3
    - m_name: _Shininess
      m_type: 3
    - m_name: _StencilComp
      m_type: 2
    - m_name: _Stencil
      m_type: 2
    - m_name: _StencilOp
      m_type: 2
    - m_name: _StencilWriteMask
      m_type: 2
    - m_name: _StencilReadMask
      m_type: 2
    - m_name: _ColorMask
      m_type: 2
    - m_name: _UseUIAlphaClip
      m_type: 2
  - m_name: UI/Lit/Refraction
    m_propertyList:
    - m_name: _Color
      m_type: 0
    - m_name: _Specular
      m_type: 0
    - m_name: _MainTex
      m_type: 4
    - m_name: _MainBump
      m_type: 4
    - m_name: _Mask
      m_type: 4
    - m_name: _Shininess
      m_type: 3
    - m_name: _Focus
      m_type: 3
    - m_name: _StencilComp
      m_type: 2
    - m_name: _Stencil
      m_type: 2
    - m_name: _StencilOp
      m_type: 2
    - m_name: _StencilWriteMask
      m_type: 2
    - m_name: _StencilReadMask
      m_type: 2
    - m_name: _ColorMask
      m_type: 2
    - m_name: _UseUIAlphaClip
      m_type: 2
  - m_name: UI/Lit/Refraction Detail
    m_propertyList:
    - m_name: _Color
      m_type: 0
    - m_name: _Specular
      m_type: 0
    - m_name: _MainTex
      m_type: 4
    - m_name: _MainBump
      m_type: 4
    - m_name: _Mask
      m_type: 4
    - m_name: _DetailTex
      m_type: 4
    - m_name: _DetailBump
      m_type: 4
    - m_name: _DetailMask
      m_type: 4
    - m_name: _Shininess
      m_type: 3
    - m_name: _Focus
      m_type: 3
    - m_name: _StencilComp
      m_type: 2
    - m_name: _Stencil
      m_type: 2
    - m_name: _StencilOp
      m_type: 2
    - m_name: _StencilWriteMask
      m_type: 2
    - m_name: _StencilReadMask
      m_type: 2
    - m_name: _ColorMask
      m_type: 2
    - m_name: _UseUIAlphaClip
      m_type: 2
  - m_name: UI/Default
    m_propertyList:
    - m_name: _MainTex
      m_type: 4
    - m_name: _Color
      m_type: 0
    - m_name: _StencilComp
      m_type: 2
    - m_name: _Stencil
      m_type: 2
    - m_name: _StencilOp
      m_type: 2
    - m_name: _StencilWriteMask
      m_type: 2
    - m_name: _StencilReadMask
      m_type: 2
    - m_name: _ColorMask
      m_type: 2
    - m_name: _UseUIAlphaClip
      m_type: 2
  - m_name: UI/Default Font
    m_propertyList:
    - m_name: _MainTex
      m_type: 4
    - m_name: _Color
      m_type: 0
    - m_name: _StencilComp
      m_type: 2
    - m_name: _Stencil
      m_type: 2
    - m_name: _StencilOp
      m_type: 2
    - m_name: _StencilWriteMask
      m_type: 2
    - m_name: _StencilReadMask
      m_type: 2
    - m_name: _ColorMask
      m_type: 2
    - m_name: _UseUIAlphaClip
      m_type: 2
  - m_name: Nature/SpeedTree
    m_propertyList:
    - m_name: _Color
      m_type: 0
    - m_name: _HueVariation
      m_type: 0
    - m_name: _MainTex
      m_type: 4
    - m_name: _DetailTex
      m_type: 4
    - m_name: _BumpMap
      m_type: 4
    - m_name: _Cutoff
      m_type: 3
    - m_name: _Cull
      m_type: 2
    - m_name: _WindQuality
      m_type: 3
  - m_name: Nature/SpeedTree Billboard
    m_propertyList:
    - m_name: _Color
      m_type: 0
    - m_name: _HueVariation
      m_type: 0
    - m_name: _MainTex
      m_type: 4
    - m_name: _BumpMap
      m_type: 4
    - m_name: _Cutoff
      m_type: 3
    - m_name: _WindQuality
      m_type: 3
  - m_name: Hidden/GIDebug/TextureUV
    m_propertyList:
    - m_name: _MainTex
      m_type: 4
  - m_name: Hidden/GIDebug/UV1sAsPositions
    m_propertyList:
    - m_name: _Color
      m_type: 0
  - m_name: Hidden/GIDebug/VertexColors
    m_propertyList:
    - m_name: _MainTex
      m_type: 4
  - m_name: Hidden/CubeBlur
    m_propertyList:
    - m_name: _MainTex
      m_type: 4
    - m_name: _Texel
      m_type: 2
    - m_name: _Level
      m_type: 2
    - m_name: _Scale
      m_type: 2
  - m_name: Hidden/CubeCopy
    m_propertyList:
    - m_name: _MainTex
      m_type: 4
    - m_name: _Level
      m_type: 2
  - m_name: Hidden/CubeBlend
    m_propertyList:
    - m_name: _TexA
      m_type: 4
    - m_name: _TexB
      m_type: 4
    - m_name: _value
      m_type: 3
  - m_name: Hidden/Internal-DeferredReflections
    m_propertyList:
    - m_name: _SrcBlend
      m_type: 2
    - m_name: _DstBlend
      m_type: 2
  - m_name: Hidden/Internal-StencilWrite
    m_propertyList: []
  - m_name: Hidden/Internal-CombineDepthNormals
    m_propertyList: []
  - m_name: Hidden/BlitCopy
    m_propertyList:
    - m_name: _MainTex
      m_type: 4
    - m_name: _Color
      m_type: 0
  - m_name: Hidden/BlitCopyDepth
    m_propertyList:
    - m_name: _MainTex
      m_type: 4
  - m_name: Hidden/BlitCopyWithDepth
    m_propertyList:
    - m_name: _MainTex
      m_type: 4
    - m_name: _Color
      m_type: 0
  - m_name: Hidden/ConvertTexture
    m_propertyList: []
  - m_name: Hidden/BlitToDepth
    m_propertyList:
    - m_name: _MainTex
      m_type: 4
    - m_name: _Color
      m_type: 0
  - m_name: Hidden/BlitToDepth_MSAA
    m_propertyList:
    - m_name: _MainTex
      m_type: 4
  - m_name: Standard (Roughness setup)
    m_propertyList:
    - m_name: _Color
      m_type: 0
    - m_name: _MainTex
      m_type: 4
    - m_name: _Cutoff
      m_type: 3
    - m_name: _Glossiness
      m_type: 3
    - m_name: _SpecGlossMap
      m_type: 4
    - m_name: _Metallic
      m_type: 3
    - m_name: _MetallicGlossMap
      m_type: 4
    - m_name: _SpecularHighlights
      m_type: 2
    - m_name: _GlossyReflections
      m_type: 2
    - m_name: _BumpScale
      m_type: 2
    - m_name: _BumpMap
      m_type: 4
    - m_name: _Parallax
      m_type: 3
    - m_name: _ParallaxMap
      m_type: 4
    - m_name: _OcclusionStrength
      m_type: 3
    - m_name: _OcclusionMap
      m_type: 4
    - m_name: _EmissionColor
      m_type: 0
    - m_name: _EmissionMap
      m_type: 4
    - m_name: _DetailMask
      m_type: 4
    - m_name: _DetailAlbedoMap
      m_type: 4
    - m_name: _DetailNormalMapScale
      m_type: 2
    - m_name: _DetailNormalMap
      m_type: 4
    - m_name: _UVSec
      m_type: 2
    - m_name: _Mode
      m_type: 2
    - m_name: _SrcBlend
      m_type: 2
    - m_name: _DstBlend
      m_type: 2
    - m_name: _ZWrite
      m_type: 2
  - m_name: Hidden/Internal-ScreenSpaceShadows
    m_propertyList:
    - m_name: _ShadowMapTexture
      m_type: 4
    - m_name: _ODSWorldTexture
      m_type: 4
  - m_name: Hidden/Internal-DepthNormalsTexture
    m_propertyList:
    - m_name: _MainTex
      m_type: 4
    - m_name: _Cutoff
      m_type: 2
    - m_name: _Color
      m_type: 0
  - m_name: Hidden/Internal-MotionVectors
    m_propertyList: []
  - m_name: Hidden/Internal-Flare
    m_propertyList: []
  - m_name: Hidden/Internal-Halo
    m_propertyList: []
  - m_name: Skybox/Panoramic
    m_propertyList:
    - m_name: _Tint
      m_type: 0
    - m_name: _Exposure
      m_type: 3
    - m_name: _Rotation
      m_type: 3
    - m_name: _MainTex
      m_type: 4
    - m_name: _Mapping
      m_type: 2
    - m_name: _ImageType
      m_type: 2
    - m_name: _MirrorOnBack
      m_type: 2
    - m_name: _Layout
      m_type: 2
  - m_name: Particles/Anim Alpha Blended
    m_propertyList:
    - m_name: _TintColor
      m_type: 0
    - m_name: _MainTex
      m_type: 4
    - m_name: _InvFade
      m_type: 3
  - m_name: Particles/Standard Surface
    m_propertyList:
    - m_name: _MainTex
      m_type: 4
    - m_name: _Color
      m_type: 0
    - m_name: _Cutoff
      m_type: 3
    - m_name: _MetallicGlossMap
      m_type: 4
    - m_name: _Metallic
      m_type: 3
    - m_name: _Glossiness
      m_type: 3
    - m_name: _BumpScale
      m_type: 2
    - m_name: _BumpMap
      m_type: 4
    - m_name: _EmissionColor
      m_type: 0
    - m_name: _EmissionMap
      m_type: 4
    - m_name: _DistortionStrength
      m_type: 2
    - m_name: _DistortionBlend
      m_type: 3
    - m_name: _SoftParticlesNearFadeDistance
      m_type: 2
    - m_name: _SoftParticlesFarFadeDistance
      m_type: 2
    - m_name: _CameraNearFadeDistance
      m_type: 2
    - m_name: _CameraFarFadeDistance
      m_type: 2
    - m_name: _Mode
      m_type: 2
    - m_name: _FlipbookMode
      m_type: 2
    - m_name: _LightingEnabled
      m_type: 2
    - m_name: _DistortionEnabled
      m_type: 2
    - m_name: _EmissionEnabled
      m_type: 2
    - m_name: _BlendOp
      m_type: 2
    - m_name: _SrcBlend
      m_type: 2
    - m_name: _DstBlend
      m_type: 2
    - m_name: _ZWrite
      m_type: 2
    - m_name: _Cull
      m_type: 2
    - m_name: _SoftParticlesEnabled
      m_type: 2
    - m_name: _CameraFadingEnabled
      m_type: 2
    - m_name: _SoftParticleFadeParams
      m_type: 1
    - m_name: _CameraFadeParams
      m_type: 1
    - m_name: _DistortionStrengthScaled
      m_type: 2
  - m_name: Particles/Standard Unlit
    m_propertyList:
    - m_name: _MainTex
      m_type: 4
    - m_name: _Color
      m_type: 0
    - m_name: _Cutoff
      m_type: 3
    - m_name: _BumpScale
      m_type: 2
    - m_name: _BumpMap
      m_type: 4
    - m_name: _EmissionColor
      m_type: 0
    - m_name: _EmissionMap
      m_type: 4
    - m_name: _DistortionStrength
      m_type: 2
    - m_name: _DistortionBlend
      m_type: 3
    - m_name: _SoftParticlesNearFadeDistance
      m_type: 2
    - m_name: _SoftParticlesFarFadeDistance
      m_type: 2
    - m_name: _CameraNearFadeDistance
      m_type: 2
    - m_name: _CameraFarFadeDistance
      m_type: 2
    - m_name: _Mode
      m_type: 2
    - m_name: _ColorMode
      m_type: 2
    - m_name: _FlipbookMode
      m_type: 2
    - m_name: _LightingEnabled
      m_type: 2
    - m_name: _DistortionEnabled
      m_type: 2
    - m_name: _EmissionEnabled
      m_type: 2
    - m_name: _BlendOp
      m_type: 2
    - m_name: _SrcBlend
      m_type: 2
    - m_name: _DstBlend
      m_type: 2
    - m_name: _ZWrite
      m_type: 2
    - m_name: _Cull
      m_type: 2
    - m_name: _SoftParticlesEnabled
      m_type: 2
    - m_name: _CameraFadingEnabled
      m_type: 2
    - m_name: _SoftParticleFadeParams
      m_type: 1
    - m_name: _CameraFadeParams
      m_type: 1
    - m_name: _ColorAddSubDiff
      m_type: 1
    - m_name: _DistortionStrengthScaled
      m_type: 2
  - m_name: Hidden/TerrainEngine/CameraFacingBillboardTree
    m_propertyList:
    - m_name: _MainTex
      m_type: 4
    - m_name: _NormalTex
      m_type: 4
    - m_name: _TranslucencyViewDependency
      m_type: 3
    - m_name: _TranslucencyColor
      m_type: 0
  - m_name: Hidden/Internal-GUITextureClip
    m_propertyList:
    - m_name: _MainTex
      m_type: 4
  - m_name: Hidden/Internal-GUITextureClipText
    m_propertyList:
    - m_name: _MainTex
      m_type: 4
  - m_name: Hidden/Internal-GUITexture
    m_propertyList:
    - m_name: _MainTex
      m_type: 4
  - m_name: Hidden/Internal-GUITextureBlit
    m_propertyList:
    - m_name: _MainTex
      m_type: 4
  - m_name: Hidden/Internal-GUIRoundedRect
    m_propertyList:
    - m_name: _MainTex
      m_type: 4
    - m_name: _SrcBlend
      m_type: 2
    - m_name: _DstBlend
      m_type: 2
  - m_name: Hidden/Nature/Tree Creator Albedo Rendertex
    m_propertyList:
    - m_name: _TranslucencyColor
      m_type: 0
    - m_name: _Cutoff
      m_type: 3
    - m_name: _HalfOverCutoff
      m_type: 3
    - m_name: _TranslucencyViewDependency
      m_type: 3
    - m_name: _MainTex
      m_type: 4
    - m_name: _BumpSpecMap
      m_type: 4
    - m_name: _TranslucencyMap
      m_type: 4
  - m_name: Hidden/Nature/Tree Creator Normal Rendertex
    m_propertyList:
    - m_name: _TranslucencyColor
      m_type: 0
    - m_name: _Cutoff
      m_type: 3
    - m_name: _HalfOverCutoff
      m_type: 3
    - m_name: _TranslucencyViewDependency
      m_type: 3
    - m_name: _MainTex
      m_type: 4
    - m_name: _BumpSpecMap
      m_type: 4
    - m_name: _TranslucencyMap
      m_type: 4
  - m_name: Sprites/Default
    m_propertyList:
    - m_name: _MainTex
      m_type: 4
    - m_name: _Color
      m_type: 0
    - m_name: PixelSnap
      m_type: 2
    - m_name: _RendererColor
      m_type: 0
    - m_name: _Flip
      m_type: 1
    - m_name: _AlphaTex
      m_type: 4
    - m_name: _EnableExternalAlpha
      m_type: 2
  - m_name: Sprites/Mask
    m_propertyList:
    - m_name: _MainTex
      m_type: 4
    - m_name: _AlphaTex
      m_type: 4
    - m_name: _Cutoff
      m_type: 3
    - m_name: _Color
      m_type: 0
    - m_name: _EnableExternalAlpha
      m_type: 2
    - m_name: PixelSnap
      m_type: 2
  - m_name: UI/DefaultETC1
    m_propertyList:
    - m_name: _MainTex
      m_type: 4
    - m_name: _AlphaTex
      m_type: 4
    - m_name: _Color
      m_type: 0
    - m_name: _StencilComp
      m_type: 2
    - m_name: _Stencil
      m_type: 2
    - m_name: _StencilOp
      m_type: 2
    - m_name: _StencilWriteMask
      m_type: 2
    - m_name: _StencilReadMask
      m_type: 2
    - m_name: _ColorMask
      m_type: 2
    - m_name: _UseUIAlphaClip
      m_type: 2
  - m_name: Hidden/UI/CompositeOverdraw
    m_propertyList:
    - m_name: _MainTex
      m_type: 4
  - m_name: Hidden/UI/Overdraw
    m_propertyList:
    - m_name: _MainTex
      m_type: 4
    - m_name: _Color
      m_type: 0
    - m_name: _StencilComp
      m_type: 2
    - m_name: _Stencil
      m_type: 2
    - m_name: _StencilOp
      m_type: 2
    - m_name: _StencilWriteMask
      m_type: 2
    - m_name: _StencilReadMask
      m_type: 2
    - m_name: _ColorMask
      m_type: 2
    - m_name: _UseUIAlphaClip
      m_type: 2
  - m_name: Hidden/GIDebug/ShowLightMask
    m_propertyList:
    - m_name: _MainTex
      m_type: 4
    - m_name: _LightTexture
      m_type: 4
    - m_name: _SrcBlend
      m_type: 2
    - m_name: _DstBlend
      m_type: 2
  - m_name: VR/SpatialMapping/Occlusion
    m_propertyList: []
  - m_name: VR/SpatialMapping/Wireframe
    m_propertyList:
    - m_name: _WireThickness
      m_type: 3
  - m_name: Hidden/VR/BlitTexArraySlice
    m_propertyList:
    - m_name: _MainTex
      m_type: 4
  - m_name: Hidden/VR/Internal-VRDistortion
    m_propertyList:
    - m_name: _MainTex
      m_type: 4
  - m_name: Hidden/VR/BlitTexArraySliceToDepth
    m_propertyList:
    - m_name: _MainTex
      m_type: 4
  - m_name: Hidden/VR/BlitTexArraySliceToDepth_MSAA
    m_propertyList:
    - m_name: _MainTex
      m_type: 4
  - m_name: Hidden/Internal-ODSWorldTexture
    m_propertyList:
    - m_name: _MainTex
      m_type: 4
    - m_name: _Cutoff
      m_type: 2
    - m_name: _Color
      m_type: 0
  - m_name: Hidden/Internal-CubemapToEquirect
    m_propertyList:
    - m_name: _MainTex
      m_type: 4
  - m_name: Hidden/VR/ClippingMask
    m_propertyList: []
  - m_name: Hidden/VR/VideoBackground
    m_propertyList:
    - m_name: _MainTex
      m_type: 4
  - m_name: AR/TangoARRender
    m_propertyList:
    - m_name: _ScreenOrientation
      m_type: 2
    - m_name: _HeightScale
      m_type: 2
  - m_name: Hidden/VideoDecode
    m_propertyList:
    - m_name: _MainTex
      m_type: 4
    - m_name: _SecondTex
      m_type: 4
    - m_name: _ThirdTex
      m_type: 4
  - m_name: Hidden/VideoDecodeOSX
    m_propertyList: []
  - m_name: Hidden/VideoDecodeAndroid
    m_propertyList: []
  - m_name: Hidden/Compositing
    m_propertyList:
    - m_name: _MainTex
      m_type: 4
    - m_name: _SecondTex
      m_type: 4
  - m_name: Hidden/InternalErrorShader
    m_propertyList: []
  - m_name: Hidden/InternalClear
    m_propertyList: []
  - m_name: Hidden/Internal-Colored
    m_propertyList:
    - m_name: _Color
      m_type: 0
    - m_name: _SrcBlend
      m_type: 2
    - m_name: _DstBlend
      m_type: 2
    - m_name: _ZWrite
      m_type: 2
    - m_name: _ZTest
      m_type: 2
    - m_name: _Cull
      m_type: 2
    - m_name: _ZBias
      m_type: 2
  - m_name: GUI/Text Shader
    m_propertyList:
    - m_name: _MainTex
      m_type: 4
    - m_name: _Color
      m_type: 0
  - m_name: Hidden/FrameDebuggerRenderTargetDisplay
    m_propertyList:
    - m_name: _MainTex
      m_type: 4
  - m_name: Hidden/BlendOneOne
    m_propertyList:
    - m_name: _MainTex
      m_type: 4
  - m_name: Effects/GlowAdditive
    m_propertyList:
    - m_name: _TintColor
      m_type: 0
    - m_name: _MainTex
      m_type: 4
    - m_name: _CutOutLightCore
      m_type: 3
    - m_name: _InvFade
      m_type: 3
  - m_name: Hidden/Noise Shader RGB
    m_propertyList:
    - m_name: _MainTex
      m_type: 4
    - m_name: _GrainTex
      m_type: 4
    - m_name: _ScratchTex
      m_type: 4
  - m_name: Hidden/SeparableWeightedBlurDof34
    m_propertyList:
    - m_name: _MainTex
      m_type: 4
    - m_name: _TapMedium
      m_type: 4
    - m_name: _TapLow
      m_type: 4
    - m_name: _TapHigh
      m_type: 4
  - m_name: Cartoon FX/Particle Multiply Colored
    m_propertyList:
    - m_name: _TintColor
      m_type: 0
    - m_name: _MainTex
      m_type: 4
    - m_name: _InvFade
      m_type: 3
  - m_name: Hidden/ShowAlphaChannel
    m_propertyList:
    - m_name: _MainTex
      m_type: 4
    - m_name: _EdgeTex
      m_type: 4
  - m_name: Cartoon FX/Mobile Particles Additive Alpha8
    m_propertyList:
    - m_name: _MainTex
      m_type: 4
  - m_name: Hidden/SunShaftsComposite
    m_propertyList:
    - m_name: _MainTex
      m_type: 4
    - m_name: _ColorBuffer
      m_type: 4
    - m_name: _Skybox
      m_type: 4
  - m_name: Hidden/ColorCorrectionCurves
    m_propertyList:
    - m_name: _MainTex
      m_type: 4
    - m_name: _RgbTex
      m_type: 4
    - m_name: _ZCurve
      m_type: 4
    - m_name: _RgbDepthTex
      m_type: 4
  - m_name: Hidden/ScreenSpaceAmbientObscurance
    m_propertyList:
    - m_name: _MainTex
      m_type: 4
  - m_name: Effects/Distortion/Free/CullBack
    m_propertyList:
    - m_name: _Color
      m_type: 0
    - m_name: _MainTex
      m_type: 4
    - m_name: _ColorStrength
      m_type: 2
  - m_name: Hidden/NFAA
    m_propertyList:
    - m_name: _MainTex
      m_type: 4
    - m_name: _BlurTex
      m_type: 4
  - m_name: Effects/Particles
    m_propertyList:
    - m_name: _TintColor
      m_type: 0
    - m_name: _MainTex
      m_type: 4
  - m_name: Hidden/Dof/TiltShiftHdrLensBlur
    m_propertyList:
    - m_name: _MainTex
      m_type: 4
  - m_name: Hidden/VignetteShader
    m_propertyList:
    - m_name: _MainTex
      m_type: 4
  - m_name: Hidden/Dof/DepthOfFieldHdr
    m_propertyList:
    - m_name: _MainTex
      m_type: 4
    - m_name: _FgOverlap
      m_type: 4
    - m_name: _LowRez
      m_type: 4
  - m_name: Hidden/MotionBlur
    m_propertyList:
    - m_name: _MainTex
      m_type: 4
    - m_name: _AccumOrig
      m_type: 2
  - m_name: Hidden/FastBloom
    m_propertyList:
    - m_name: _MainTex
      m_type: 4
    - m_name: _Bloom
      m_type: 4
  - m_name: Effects/Water
    m_propertyList:
    - m_name: _Color
      m_type: 0
    - m_name: _SpecColor
      m_type: 0
    - m_name: _Shininess
      m_type: 3
    - m_name: _ReflectColor
      m_type: 0
    - m_name: _RimColor
      m_type: 0
    - m_name: _BumpMap
      m_type: 4
    - m_name: _HeightMap
      m_type: 4
    - m_name: _Height
      m_type: 3
    - m_name: _OffsetXHeightMap
      m_type: 3
    - m_name: _OffsetYHeightMap
      m_type: 3
    - m_name: _FPOW
      m_type: 2
    - m_name: _R0
      m_type: 2
    - m_name: _Cutoff
      m_type: 3
    - m_name: _BumpAmt
      m_type: 3
  - m_name: Hidden/Contrast Stretch Reduction
    m_propertyList:
    - m_name: _MainTex
      m_type: 4
  - m_name: Hidden/SSAA
    m_propertyList:
    - m_name: _MainTex
      m_type: 4
  - m_name: Hidden/RadialBlur
    m_propertyList:
    - m_name: _MainTex
      m_type: 4
  - m_name: Effects/Distortion/CullBack+1
    m_propertyList:
    - m_name: _Color
      m_type: 0
    - m_name: _MainTex
      m_type: 4
    - m_name: _BumpMap
      m_type: 4
    - m_name: _ColorStrength
      m_type: 2
    - m_name: _BumpAmt
      m_type: 3
  - m_name: Hidden/Dof/DX11Dof
    m_propertyList:
    - m_name: _MainTex
      m_type: 4
    - m_name: _BlurredColor
      m_type: 4
    - m_name: _FgCocMask
      m_type: 4
  - m_name: Hidden/ContrastComposite
    m_propertyList:
    - m_name: _MainTex
      m_type: 4
    - m_name: _MainTexBlurred
      m_type: 4
  - m_name: Hidden/FXAA Preset 3
    m_propertyList:
    - m_name: _MainTex
      m_type: 4
  - m_name: Hidden/FisheyeShader
    m_propertyList:
    - m_name: _MainTex
      m_type: 4
  - m_name: Hidden/Contrast Stretch Apply
    m_propertyList:
    - m_name: _MainTex
      m_type: 4
    - m_name: _AdaptTex
      m_type: 4
  - m_name: FX/SimpleWater4
    m_propertyList:
    - m_name: _ReflectionTex
      m_type: 4
    - m_name: _MainTex
      m_type: 4
    - m_name: _BumpMap
      m_type: 4
    - m_name: _DistortParams
      m_type: 1
    - m_name: _InvFadeParemeter
      m_type: 1
    - m_name: _AnimationTiling
      m_type: 1
    - m_name: _AnimationDirection
      m_type: 1
    - m_name: _BumpTiling
      m_type: 1
    - m_name: _BumpDirection
      m_type: 1
    - m_name: _FresnelScale
      m_type: 3
    - m_name: _BaseColor
      m_type: 0
    - m_name: _ReflectionColor
      m_type: 0
    - m_name: _SpecularColor
      m_type: 0
    - m_name: _WorldLightDir
      m_type: 1
    - m_name: _Shininess
      m_type: 3
    - m_name: _GerstnerIntensity
      m_type: 2
    - m_name: _GAmplitude
      m_type: 1
    - m_name: _GFrequency
      m_type: 1
    - m_name: _GSteepness
      m_type: 1
    - m_name: _GSpeed
      m_type: 1
    - m_name: _GDirectionAB
      m_type: 1
    - m_name: _GDirectionCD
      m_type: 1
  - m_name: Effects/TransperentDiffuseRimSpecular
    m_propertyList:
    - m_name: _Color
      m_type: 0
    - m_name: _SpecColor
      m_type: 0
    - m_name: _Shininess
      m_type: 3
    - m_name: _RimColor
      m_type: 0
    - m_name: _MainTex
      m_type: 4
    - m_name: _BumpMap
      m_type: 4
    - m_name: _FPOW
      m_type: 2
    - m_name: _R0
      m_type: 2
    - m_name: _Emission
      m_type: 3
    - m_name: _Opacity
      m_type: 3
  - m_name: Effects/Distortion/CullBack+2
    m_propertyList:
    - m_name: _Color
      m_type: 0
    - m_name: _MainTex
      m_type: 4
    - m_name: _BumpMap
      m_type: 4
    - m_name: _ColorStrength
      m_type: 2
    - m_name: _BumpAmt
      m_type: 3
  - m_name: ParticleCook/Transparent/AlphaBlend/Diffuse
    m_propertyList:
    - m_name: _TintColor
      m_type: 0
    - m_name: _MainTex
      m_type: 4
  - m_name: Effects/Rim
    m_propertyList:
    - m_name: _Color
      m_type: 0
    - m_name: _FPOW
      m_type: 2
    - m_name: _R0
      m_type: 2
  - m_name: Cartoon FX/Particle Invert
    m_propertyList:
    - m_name: _TintColor
      m_type: 0
    - m_name: _MainTex
      m_type: 4
    - m_name: _InvFade
      m_type: 3
  - m_name: Effects/Distortion/Free/CutOutCullOff
    m_propertyList:
    - m_name: _Color
      m_type: 0
    - m_name: _MainTex
      m_type: 4
    - m_name: _CutoutTex
      m_type: 4
    - m_name: _ColorStrength
      m_type: 2
  - m_name: Effects/GlowAdditiveTwoColor
    m_propertyList:
    - m_name: _TintColor
      m_type: 0
    - m_name: _CoreColor
      m_type: 0
    - m_name: _MainTex
      m_type: 4
    - m_name: _TintStrength
      m_type: 3
    - m_name: _CoreStrength
      m_type: 3
    - m_name: _CutOutLightCore
      m_type: 3
    - m_name: _InvFade
      m_type: 3
  - m_name: Hidden/Dof/DepthOfField34
    m_propertyList:
    - m_name: _MainTex
      m_type: 4
    - m_name: _TapLowBackground
      m_type: 4
    - m_name: _TapLowForeground
      m_type: 4
    - m_name: _TapMedium
      m_type: 4
  - m_name: Effects/Distortion/Free/CullOff
    m_propertyList:
    - m_name: _Color
      m_type: 0
    - m_name: _MainTex
      m_type: 4
    - m_name: _ColorStrength
      m_type: 2
  - m_name: Hidden/FastBlur
    m_propertyList:
    - m_name: _MainTex
      m_type: 4
    - m_name: _Bloom
      m_type: 4
  - m_name: Hidden/SSAO
    m_propertyList:
    - m_name: _MainTex
      m_type: 4
    - m_name: _RandomTexture
      m_type: 4
    - m_name: _SSAO
      m_type: 4
  - m_name: Effects/DiffuseRim
    m_propertyList:
    - m_name: _Color
      m_type: 0
    - m_name: _RimColor
      m_type: 0
    - m_name: _MainTex
      m_type: 4
    - m_name: _FPOW
      m_type: 2
    - m_name: _R0
      m_type: 2
    - m_name: _Emission
      m_type: 3
    - m_name: _Opacity
      m_type: 3
  - m_name: Hidden/ConvertDepth
    m_propertyList:
    - m_name: _MainTex
      m_type: 4
  - m_name: Effects/Distortion/CullOff+1
    m_propertyList:
    - m_name: _Color
      m_type: 0
    - m_name: _MainTex
      m_type: 4
    - m_name: _BumpMap
      m_type: 4
    - m_name: _ColorStrength
      m_type: 2
    - m_name: _BumpAmt
      m_type: 3
  - m_name: Hidden/ColorCorrectionCurvesSimple
    m_propertyList:
    - m_name: _MainTex
      m_type: 4
    - m_name: _RgbTex
      m_type: 4
  - m_name: Hidden/Noise Shader YUV
    m_propertyList:
    - m_name: _MainTex
      m_type: 4
    - m_name: _GrainTex
      m_type: 4
    - m_name: _ScratchTex
      m_type: 4
  - m_name: Hidden/CreaseApply
    m_propertyList:
    - m_name: _MainTex
      m_type: 4
    - m_name: _HrDepthTex
      m_type: 4
    - m_name: _LrDepthTex
      m_type: 4
  - m_name: FX/Water (Basic)
    m_propertyList:
    - m_name: _horizonColor
      m_type: 0
    - m_name: _WaveScale
      m_type: 3
    - m_name: _ColorControl
      m_type: 4
    - m_name: _BumpMap
      m_type: 4
    - m_name: WaveSpeed
      m_type: 1
  - m_name: Hidden/ChromaticAberration
    m_propertyList:
    - m_name: _MainTex
      m_type: 4
  - m_name: Hidden/GlobalFog
    m_propertyList:
    - m_name: _MainTex
      m_type: 4
  - m_name: Hidden/Contrast Stretch Luminance
    m_propertyList:
    - m_name: _MainTex
      m_type: 4
  - m_name: Hidden/ColorCorrectionSelective
    m_propertyList:
    - m_name: _MainTex
      m_type: 4
  - m_name: Hidden/Dof/Bokeh34
    m_propertyList:
    - m_name: _MainTex
      m_type: 4
    - m_name: _Source
      m_type: 4
  - m_name: Hidden/CameraMotionBlurDX11
    m_propertyList:
    - m_name: _MainTex
      m_type: 4
    - m_name: _NoiseTex
      m_type: 4
    - m_name: _VelTex
      m_type: 4
    - m_name: _NeighbourMaxTex
      m_type: 4
  - m_name: Hidden/SeparableBlurPlus
    m_propertyList:
    - m_name: _MainTex
      m_type: 4
  - m_name: Projector/Light
    m_propertyList:
    - m_name: _Color
      m_type: 0
    - m_name: _ShadowTex
      m_type: 4
    - m_name: _FalloffTex
      m_type: 4
  - m_name: Hidden/MultipassHollywoodFlares
    m_propertyList:
    - m_name: _MainTex
      m_type: 4
    - m_name: _NonBlurredTex
      m_type: 4
  - m_name: Hidden/BlurEffectConeTap
    m_propertyList:
    - m_name: _MainTex
      m_type: 4
  - m_name: Hidden/CameraMotionBlur
    m_propertyList:
    - m_name: _MainTex
      m_type: 4
    - m_name: _NoiseTex
      m_type: 4
    - m_name: _VelTex
      m_type: 4
    - m_name: _NeighbourMaxTex
      m_type: 4
  - m_name: FX/Water
    m_propertyList:
    - m_name: _WaveScale
      m_type: 3
    - m_name: _ReflDistort
      m_type: 3
    - m_name: _RefrDistort
      m_type: 3
    - m_name: _RefrColor
      m_type: 0
    - m_name: _Fresnel
      m_type: 4
    - m_name: _BumpMap
      m_type: 4
    - m_name: WaveSpeed
      m_type: 1
    - m_name: _ReflectiveColor
      m_type: 4
    - m_name: _HorizonColor
      m_type: 0
    - m_name: _ReflectionTex
      m_type: 4
    - m_name: _RefractionTex
      m_type: 4
  - m_name: Hidden/DLAA
    m_propertyList:
    - m_name: _MainTex
      m_type: 4
  - m_name: Effects/Distortion/CutOutCullOff
    m_propertyList:
    - m_name: _Color
      m_type: 0
    - m_name: _MainTex
      m_type: 4
    - m_name: _BumpMap
      m_type: 4
    - m_name: _CutoutTex
      m_type: 4
    - m_name: _ColorStrength
      m_type: 2
    - m_name: _BumpAmt
      m_type: 3
  - m_name: Hidden/NoiseAndGrainDX11
    m_propertyList:
    - m_name: _MainTex
      m_type: 4
    - m_name: _NoiseTex
      m_type: 4
  - m_name: Hidden/BrightPassFilter2
    m_propertyList:
    - m_name: _MainTex
      m_type: 4
  - m_name: Hidden/SeparableBlur
    m_propertyList:
    - m_name: _MainTex
      m_type: 4
  - m_name: Hidden/MotionBlurClear
    m_propertyList: []
  - m_name: Hidden/Color Correction Effect
    m_propertyList:
    - m_name: _MainTex
      m_type: 4
    - m_name: _RampTex
      m_type: 4
  - m_name: Hidden/Grayscale Effect
    m_propertyList:
    - m_name: _MainTex
      m_type: 4
    - m_name: _RampTex
      m_type: 4
  - m_name: Hidden/Sepiatone Effect
    m_propertyList:
    - m_name: _MainTex
      m_type: 4
  - m_name: Hidden/Twirt Effect Shader
    m_propertyList:
    - m_name: _MainTex
      m_type: 4
  - m_name: Hidden/Twist Effect
    m_propertyList:
    - m_name: _MainTex
      m_type: 4
  - m_name: Hidden/Contrast Stretch Adaptation
    m_propertyList:
    - m_name: _MainTex
      m_type: 4
    - m_name: _CurTex
      m_type: 4
  - m_name: Hidden/NoiseAndGrain
    m_propertyList:
    - m_name: _MainTex
      m_type: 4
    - m_name: _NoiseTex
      m_type: 4
  - m_name: Projector/Multiply
    m_propertyList:
    - m_name: _ShadowTex
      m_type: 4
    - m_name: _FalloffTex
      m_type: 4
  - m_name: Hidden/Vignetting
    m_propertyList:
    - m_name: _MainTex
      m_type: 4
    - m_name: _VignetteTex
      m_type: 4
  - m_name: Effects/Distortion/CutOutCullOff+1
    m_propertyList:
    - m_name: _Color
      m_type: 0
    - m_name: _MainTex
      m_type: 4
    - m_name: _BumpMap
      m_type: 4
    - m_name: _CutoutTex
      m_type: 4
    - m_name: _ColorStrength
      m_type: 2
    - m_name: _BumpAmt
      m_type: 3
  - m_name: Hidden/Tonemapper
    m_propertyList:
    - m_name: _MainTex
      m_type: 4
    - m_name: _SmallTex
      m_type: 4
    - m_name: _Curve
      m_type: 4
  - m_name: Hidden/BrightPassFilterForBloom
    m_propertyList:
    - m_name: _MainTex
      m_type: 4
  - m_name: Hidden/FXAA II
    m_propertyList:
    - m_name: _MainTex
      m_type: 4
  - m_name: Hidden/ColorCorrection3DLut
    m_propertyList:
    - m_name: _MainTex
      m_type: 4
  - m_name: Hidden/LensFlareCreate
    m_propertyList:
    - m_name: _MainTex
      m_type: 4
  - m_name: Hidden/EdgeDetect
    m_propertyList:
    - m_name: _MainTex
      m_type: 4
  - m_name: Hidden/PrepareSunShaftsBlur
    m_propertyList:
    - m_name: _MainTex
      m_type: 4
    - m_name: _Skybox
      m_type: 4
  - m_name: Hidden/Blend
    m_propertyList:
    - m_name: _MainTex
      m_type: 4
    - m_name: _ColorBuffer
      m_type: 4
  - m_name: Hidden/BlendModesOverlay
    m_propertyList:
    - m_name: _MainTex
      m_type: 4
    - m_name: _Overlay
      m_type: 4
  - m_name: FX/Water4
    m_propertyList:
    - m_name: _ReflectionTex
      m_type: 4
    - m_name: _MainTex
      m_type: 4
    - m_name: _ShoreTex
      m_type: 4
    - m_name: _BumpMap
      m_type: 4
    - m_name: _DistortParams
      m_type: 1
    - m_name: _InvFadeParemeter
      m_type: 1
    - m_name: _AnimationTiling
      m_type: 1
    - m_name: _AnimationDirection
      m_type: 1
    - m_name: _BumpTiling
      m_type: 1
    - m_name: _BumpDirection
      m_type: 1
    - m_name: _FresnelScale
      m_type: 3
    - m_name: _BaseColor
      m_type: 0
    - m_name: _ReflectionColor
      m_type: 0
    - m_name: _SpecularColor
      m_type: 0
    - m_name: _WorldLightDir
      m_type: 1
    - m_name: _Shininess
      m_type: 3
    - m_name: _Foam
      m_type: 1
    - m_name: _GerstnerIntensity
      m_type: 2
    - m_name: _GAmplitude
      m_type: 1
    - m_name: _GFrequency
      m_type: 1
    - m_name: _GSteepness
      m_type: 1
    - m_name: _GSpeed
      m_type: 1
    - m_name: _GDirectionAB
      m_type: 1
    - m_name: _GDirectionCD
      m_type: 1
  - m_name: Effects/GlowAdditiveSimple
    m_propertyList:
    - m_name: _TintColor
      m_type: 0
    - m_name: _CoreColor
      m_type: 0
    - m_name: _MainTex
      m_type: 4
    - m_name: _TintStrength
      m_type: 3
    - m_name: _CoreStrength
      m_type: 3
    - m_name: _CutOutLightCore
      m_type: 3
  - m_name: Hidden/SimpleClear
    m_propertyList:
    - m_name: _MainTex
      m_type: 4
  - m_name: ParticleCook/Transparent/Additive/Diffuse
    m_propertyList:
    - m_name: _TintColor
      m_type: 0
    - m_name: _MainTex
      m_type: 4
  - m_name: Hidden/FXAA III (Console)
    m_propertyList:
    - m_name: _MainTex
      m_type: 4
    - m_name: _EdgeThresholdMin
      m_type: 2
    - m_name: _EdgeThreshold
      m_type: 2
    - m_name: _EdgeSharpness
      m_type: 2
  - m_name: ParticleCook/Transparent/AlphaBlend/Diffuse-Z
    m_propertyList:
    - m_name: _TintColor
      m_type: 0
    - m_name: _MainTex
      m_type: 4
  - m_name: Effects/WaterFree
    m_propertyList:
    - m_name: _Color
      m_type: 0
    - m_name: _SpecColor
      m_type: 0
    - m_name: _Shininess
      m_type: 3
    - m_name: _ReflectColor
      m_type: 0
    - m_name: _RimColor
      m_type: 0
    - m_name: _BumpMap
      m_type: 4
    - m_name: _HeightMap
      m_type: 4
    - m_name: _Height
      m_type: 3
    - m_name: _OffsetXHeightMap
      m_type: 3
    - m_name: _OffsetYHeightMap
      m_type: 3
    - m_name: _FPOW
      m_type: 2
    - m_name: _R0
      m_type: 2
    - m_name: _Cutoff
      m_type: 3
  - m_name: Hidden/FXAA Preset 2
    m_propertyList:
    - m_name: _MainTex
      m_type: 4
  - m_name: Hidden/BlurAndFlares
    m_propertyList:
    - m_name: _MainTex
      m_type: 4
    - m_name: _NonBlurredTex
      m_type: 4
  - m_name: Hidden/BlendForBloom
    m_propertyList:
    - m_name: _MainTex
      m_type: 4
    - m_name: _ColorBuffer
      m_type: 4
