%YAML 1.1
%TAG !u! tag:unity3d.com,2011:
--- !u!21 &2100000
Material:
  serializedVersion: 6
  m_ObjectHideFlags: 0
  m_PrefabParentObject: {fileID: 0}
  m_PrefabInternal: {fileID: 0}
  m_Name: M_ice_0019
  m_Shader: {fileID: 4800000, guid: 6b086dce12d4e8c49a2ec01228aea43e, type: 3}
  m_ShaderKeywords: 
  m_LightmapFlags: 5
  m_CustomRenderQueue: -1
  stringTagMap: {}
  m_SavedProperties:
    serializedVersion: 2
    m_TexEnvs:
      data:
        first:
          name: _MainTex
        second:
          m_Texture: {fileID: 2800000, guid: cf74af168e1669b4e995205b569ada66, type: 3}
          m_Scale: {x: 1, y: 1}
          m_Offset: {x: 0, y: 0}
    m_Floats:
      data:
        first:
          name: _InvFade
        second: 1
      data:
        first:
          name: _MMultiplier
        second: 1
      data:
        first:
          name: _ScrollX
        second: 0
      data:
        first:
          name: _ScrollY
        second: 0
      data:
        first:
          name: _RotationX
        second: .5
      data:
        first:
          name: _RotationY
        second: .5
      data:
        first:
          name: _Rotation
        second: -15
      data:
        first:
          name: _RotationStart
        second: 0
    m_Colors:
      data:
        first:
          name: _Color
        second: {r: .768656731, g: .768656731, b: .768656731, a: 1}
      data:
        first:
          name: _TintColor
        second: {r: 1, g: 1, b: 1, a: 1}
